^D:\MYDIR\TASK7-STRUCTURES\TASK7-STRUCTURES\STDAFX.CPP
/c /ZI /JMC /nologo /W3 /WX- /diagnostics:classic /sdl /Od /Oy- /D WIN32 /D _DEBUG /D _CONSOLE /D _UNICODE /D UNICODE /Gm- /EHsc /RTC1 /MDd /GS /fp:precise /Zc:wchar_t /Zc:forScope /Zc:inline /Yc"stdafx.h" /Fp"DEBUG\TASK7-STRUCTURES.PCH" /Fo"DEBUG\\" /Fd"DEBUG\VC141.PDB" /Gd /TP /analyze- /FC D:\MYDIR\TASK7-STRUCTURES\TASK7-STRUCTURES\STDAFX.CPP
^D:\MYDIR\TASK7-STRUCTURES\TASK7-STRUCTURES\STAFF.CPP
/c /ZI /JMC /nologo /W3 /WX- /diagnostics:classic /sdl /Od /Oy- /D WIN32 /D _DEBUG /D _CONSOLE /D _UNICODE /D UNICODE /Gm- /EHsc /RTC1 /MDd /GS /fp:precise /Zc:wchar_t /Zc:forScope /Zc:inline /Yu"stdafx.h" /Fp"DEBUG\TASK7-STRUCTURES.PCH" /Fo"DEBUG\\" /Fd"DEBUG\VC141.PDB" /Gd /TP /analyze- /FC D:\MYDIR\TASK7-STRUCTURES\TASK7-STRUCTURES\STAFF.CPP
^D:\MYDIR\TASK7-STRUCTURES\TASK7-STRUCTURES\TASK7-STRUCTURES.CPP
/c /ZI /JMC /nologo /W3 /WX- /diagnostics:classic /sdl /Od /Oy- /D WIN32 /D _DEBUG /D _CONSOLE /D _UNICODE /D UNICODE /Gm- /EHsc /RTC1 /MDd /GS /fp:precise /Zc:wchar_t /Zc:forScope /Zc:inline /Yu"stdafx.h" /Fp"DEBUG\TASK7-STRUCTURES.PCH" /Fo"DEBUG\\" /Fd"DEBUG\VC141.PDB" /Gd /TP /analyze- /FC D:\MYDIR\TASK7-STRUCTURES\TASK7-STRUCTURES\TASK7-STRUCTURES.CPP
^D:\MYDIR\TASK7-STRUCTURES\TASK7-STRUCTURES\UI.CPP
/c /ZI /JMC /nologo /W3 /WX- /diagnostics:classic /sdl /Od /Oy- /D WIN32 /D _DEBUG /D _CONSOLE /D _UNICODE /D UNICODE /Gm- /EHsc /RTC1 /MDd /GS /fp:precise /Zc:wchar_t /Zc:forScope /Zc:inline /Yu"stdafx.h" /Fp"DEBUG\TASK7-STRUCTURES.PCH" /Fo"DEBUG\\" /Fd"DEBUG\VC141.PDB" /Gd /TP /analyze- /FC D:\MYDIR\TASK7-STRUCTURES\TASK7-STRUCTURES\UI.CPP
^D:\СЕРГЕЙ\C++ PROJECTS\TASK7-STRUCTURES\TASK7-STRUCTURES\STDAFX.CPP
/c /ZI /JMC /nologo /W3 /WX- /diagnostics:column /sdl /Od /Oy- /D WIN32 /D _DEBUG /D _CONSOLE /D _UNICODE /D UNICODE /Gm- /EHsc /RTC1 /MDd /GS /fp:precise /Zc:wchar_t /Zc:forScope /Zc:inline /Yc"stdafx.h" /Fp"DEBUG\TASK7-STRUCTURES.PCH" /Fo"DEBUG\\" /Fd"DEBUG\VC143.PDB" /external:W3 /Gd /TP /analyze- /FC D:\СЕРГЕЙ\C++ PROJECTS\TASK7-STRUCTURES\TASK7-STRUCTURES\STDAFX.CPP
^D:\СЕРГЕЙ\C++ PROJECTS\TASK7-STRUCTURES\TASK7-STRUCTURES\TASK7-STRUCTURES.CPP
/c /ZI /JMC /nologo /W3 /WX- /diagnostics:column /sdl /Od /Oy- /D WIN32 /D _DEBUG /D _CONSOLE /D _UNICODE /D UNICODE /Gm- /EHsc /RTC1 /MDd /GS /fp:precise /Zc:wchar_t /Zc:forScope /Zc:inline /Yu"stdafx.h" /Fp"DEBUG\TASK7-STRUCTURES.PCH" /Fo"DEBUG\\" /Fd"DEBUG\VC143.PDB" /external:W3 /Gd /TP /analyze- /FC D:\СЕРГЕЙ\C++ PROJECTS\TASK7-STRUCTURES\TASK7-STRUCTURES\TASK7-STRUCTURES.CPP
^D:\СЕРГЕЙ\C++ PROJECTS\TASK7-STRUCTURES\TASK7-STRUCTURES\UI.CPP
/c /ZI /JMC /nologo /W3 /WX- /diagnostics:column /sdl /Od /Oy- /D WIN32 /D _DEBUG /D _CONSOLE /D _UNICODE /D UNICODE /Gm- /EHsc /RTC1 /MDd /GS /fp:precise /Zc:wchar_t /Zc:forScope /Zc:inline /Yu"stdafx.h" /Fp"DEBUG\TASK7-STRUCTURES.PCH" /Fo"DEBUG\\" /Fd"DEBUG\VC143.PDB" /external:W3 /Gd /TP /analyze- /FC D:\СЕРГЕЙ\C++ PROJECTS\TASK7-STRUCTURES\TASK7-STRUCTURES\UI.CPP
^D:\СЕРГЕЙ\C++ PROJECTS\TASK7-STRUCTURES\TASK7-STRUCTURES\STAFF.CPP
/c /ZI /JMC /nologo /W3 /WX- /diagnostics:column /sdl /Od /Oy- /D WIN32 /D _DEBUG /D _CONSOLE /D _UNICODE /D UNICODE /Gm- /EHsc /RTC1 /MDd /GS /fp:precise /Zc:wchar_t /Zc:forScope /Zc:inline /Yu"stdafx.h" /Fp"DEBUG\TASK7-STRUCTURES.PCH" /Fo"DEBUG\\" /Fd"DEBUG\VC143.PDB" /external:W3 /Gd /TP /analyze- /FC D:\СЕРГЕЙ\C++ PROJECTS\TASK7-STRUCTURES\TASK7-STRUCTURES\STAFF.CPP
