^D:\СЕРГЕЙ\C++ PROJECTS\SSOP_LEARN\TEST\TASK_2\TASK_2_V2\DEBUG\MAIN.OBJ|D:\СЕРГЕЙ\C++ PROJECTS\SSOP_LEARN\TEST\TASK_2\TASK_2_V2\DEBUG\TDATA.OBJ
/OUT:"D:\СЕРГЕЙ\C++ PROJECTS\SSOP_LEARN\TEST\TASK_2\DEBUG\TASK_2_V2.EXE" /INCREMENTAL /ILK:"DEBUG\TASK_2_V2.ILK" /NOLOGO KERNEL32.LIB USER32.LIB GDI32.LIB WINSPOOL.LIB COMDLG32.LIB ADVAPI32.LIB SHELL32.LIB OLE32.LIB OLEAUT32.LIB UUID.LIB ODBC32.LIB ODBCCP32.LIB /MANIFEST /MANIFESTUAC:"level='asInvoker' uiAccess='false'" /manifest:embed /DEBUG /PDB:"D:\СЕРГЕЙ\C++ PROJECTS\SSOP_LEARN\TEST\TASK_2\DEBUG\TASK_2_V2.PDB" /SUBSYSTEM:CONSOLE /TLBID:1 /DYNAMICBASE /NXCOMPAT /IMPLIB:"D:\СЕРГЕЙ\C++ PROJECTS\SSOP_LEARN\TEST\TASK_2\DEBUG\TASK_2_V2.LIB" /MACHINE:X86 DEBUG\MAIN.OBJ
DEBUG\TDATA.OBJ
