^D:\СЕРГЕЙ\SSOP\CLASSHIERARCHIES\CLASSHIERARCHIES\X64\DEBUG\MAIN.OBJ|D:\СЕРГЕЙ\SSOP\CLASSHIERARCHIES\CLASSHIERARCHIES\X64\DEBUG\TANIMALS.OBJ|D:\СЕРГЕЙ\SSOP\CLASSHIERARCHIES\CLASSHIERARCHIES\X64\DEBUG\TCATS.OBJ
D:\Сергей\SSOP\CLASSHIERARCHIES\CLASSHIERARCHIES\X64\DEBUG\CLASSHIERARCHIES.ILK
D:\Сергей\SSOP\CLASSHIERARCHIES\X64\DEBUG\CLASSHIERARCHIES.EXE
D:\Сергей\SSOP\CLASSHIERARCHIES\X64\DEBUG\CLASSHIERARCHIES.PDB
